<svg width="845" height="97" viewBox="0 0 845 97" fill="none" xmlns="http://www.w3.org/2000/svg">
<g clip-path="url(#clip0_0_72)">
<path d="M91.898 25.4148C91.8979 25.4148 91.8979 25.4148 91.8977 25.4148L91.8946 25.4116L85.9192 24.5254C85.0793 24.401 84.4954 23.5924 84.615 22.7194C84.6724 22.2998 84.8881 21.9213 85.2141 21.667L90.0436 17.9017C90.7224 17.3725 90.8598 16.3717 90.3508 15.6661L84.8209 8.00123C84.3118 7.29562 83.3491 7.15271 82.6703 7.68186L77.8424 11.4472C77.1665 11.9804 76.203 11.843 75.6901 11.1404C75.4411 10.7993 75.3343 10.3684 75.3939 9.94459L76.2479 3.73286C76.3683 2.85979 75.7852 2.05078 74.9455 1.92543C74.9449 1.92543 74.9444 1.92523 74.9438 1.92523L65.8255 0.571106C64.9858 0.445754 64.2072 1.05176 64.0867 1.92483C64.0867 1.92503 64.0867 1.92503 64.0867 1.92523L63.2326 8.13696C63.113 9.01004 62.3351 9.61704 61.4953 9.49268C61.0917 9.433 60.7276 9.20884 60.483 8.86991L56.8624 3.84943C56.3534 3.14382 55.3906 3.00091 54.7119 3.53006L50.0959 7.13095C48.0076 6.9002 45.9016 6.9002 43.8133 7.13095C30.137 8.75594 19.4122 20.0939 18.0791 34.3364C18.0376 34.7883 18.0222 35.237 18.0007 35.6857H17.5399C16.811 35.6871 16.1833 36.2209 16.0376 36.9632L14.9761 42.2105L10.7242 39.1621C10.114 38.7243 9.2899 38.8024 8.76571 39.3473L4.15742 44.1378C3.634 44.6826 3.55911 45.5381 3.97924 46.1722L6.89782 50.5843L1.84867 51.6877C1.14245 51.8486 0.639764 52.4995 0.6413 53.251V59.6384C0.640916 60.3937 1.14994 61.0461 1.86096 61.2017L6.91011 62.3052L3.99152 66.7173C3.5714 67.3514 3.64629 68.2069 4.16971 68.7516L8.778 73.5422C9.30219 74.0871 10.1263 74.1651 10.7365 73.7274L14.9808 70.6854L16.0422 75.9342C16.1879 76.6766 16.8156 77.2103 17.5445 77.2117H23.6889C24.4154 77.2121 25.0429 76.683 25.1927 75.9438L26.2542 70.695L30.4984 73.729C31.1084 74.1657 31.9314 74.0879 32.4554 73.5438L34.8409 71.0559V75.6069C34.8478 77.8786 36.0185 79.9743 37.9131 81.1064V89.9785C37.9131 93.5061 40.6641 96.3659 44.0575 96.3659H50.2019C53.5953 96.3659 56.3463 93.5061 56.3463 89.9785V81.1064C58.2409 79.9743 59.4115 77.8786 59.4185 75.6069V69.2866C59.4601 66.6272 60.7985 64.1721 62.9714 62.7683C64.2462 61.9086 65.4551 60.9474 66.5874 59.8939L64.5383 57.5146C63.5254 58.4584 62.4432 59.3185 61.3017 60.0871C58.2516 62.0772 56.3845 65.5432 56.3463 69.2866V75.6069C56.3463 77.3708 54.9709 78.8006 53.2741 78.8006H40.9853C39.2885 78.8006 37.9131 77.3708 37.9131 75.6069V69.154C37.8776 65.4815 36.0399 62.0824 33.0406 60.1414C20.8657 52.1888 17.1975 35.4819 24.8477 22.8255C29.5942 14.9729 37.878 10.1933 46.7994 10.1602C46.7766 10.2171 46.7564 10.2751 46.7395 10.3342C46.6825 10.7534 46.7881 11.1792 47.0329 11.5175L50.6535 16.5364C51.0352 17.05 51.0719 17.7554 50.7457 18.3089C50.4315 18.8658 49.8242 19.1696 49.2096 19.077L43.2342 18.1891C42.3943 18.064 41.6161 18.6702 41.4955 19.543C41.4955 19.5436 41.4953 19.5442 41.4953 19.5448L40.1912 29.0285C40.0708 29.9014 40.6539 30.7106 41.4936 30.8359C41.4941 30.8359 41.4947 30.8361 41.4953 30.8361L47.4707 31.724C48.3106 31.8483 48.8945 32.6569 48.7748 33.53C48.7174 33.9496 48.5018 34.328 48.1758 34.5823L43.3478 38.3461C42.6691 38.8752 42.5316 39.8761 43.0406 40.5817L48.5705 48.2465C49.0796 48.9521 50.0423 49.0951 50.7211 48.5659L55.5506 44.8021C56.2299 44.274 57.1927 44.4183 57.7007 45.1247C57.9438 45.4626 58.0485 45.887 57.9914 46.3048L57.1389 52.5165C57.0183 53.3894 57.6013 54.1988 58.4411 54.3241C58.4413 54.3241 58.4413 54.3241 58.4415 54.3241L67.5659 55.6799C67.6377 55.6894 67.7101 55.6942 67.7825 55.6942C68.5473 55.6952 69.1961 55.1112 69.3048 54.3241L70.1573 48.1124C70.2769 47.2393 71.0548 46.6323 71.8946 46.7567C72.2982 46.8164 72.6623 47.0405 72.9069 47.3794L76.529 52.3983C77.0381 53.1039 78.0008 53.2469 78.6796 52.7177L86.0528 46.9691C86.7316 46.4399 86.8691 45.4391 86.36 44.7335L82.7395 39.7146C82.3595 39.2002 82.3228 38.496 82.6473 37.9421C82.9547 37.3778 83.5676 37.072 84.1834 37.1756L90.1588 38.0618C90.9985 38.1872 91.7771 37.581 91.8977 36.7081C91.8977 36.7079 91.8977 36.7079 91.8977 36.7077L93.2003 27.2225C93.3209 26.3494 92.7379 25.5402 91.898 25.4148ZM40.9853 81.9943H53.2741V85.188H40.9853V81.9943ZM40.9853 88.3817H53.2741V89.9785C53.2741 91.7424 51.8987 93.1722 50.2019 93.1722H44.0575C42.3607 93.1722 40.9853 91.7424 40.9853 89.9785V88.3817ZM28.7565 60.8441C29.5952 61.557 30.4715 62.2209 31.3816 62.8321C32.8331 63.7856 33.9256 65.2282 34.4769 66.9185L31.1819 70.3373L27.9915 68.0506C26.5944 67.0498 24.6814 67.4159 23.7184 68.8682C23.4876 69.2165 23.3256 69.6089 23.2419 70.0227L22.437 74.01H18.7857L17.9807 70.0291C17.6313 68.3031 16.0021 67.1983 14.3417 67.5616C13.9437 67.6486 13.5662 67.8171 13.2311 68.057L10.0391 70.3373L7.24037 67.4342L9.43852 64.1192C10.4022 62.6674 10.0512 60.6786 8.65473 59.6768C8.31947 59.4362 7.94159 59.2674 7.54298 59.1801L3.71349 58.3418V54.5477L7.54298 53.7093C9.20273 53.3435 10.263 51.6482 9.91106 49.9226C9.82754 49.5132 9.66759 49.125 9.44005 48.7799L7.24037 45.4552L10.0391 42.5522L13.2327 44.8389C14.6303 45.8387 16.5433 45.4714 17.5051 44.0185C17.7355 43.6706 17.8972 43.2785 17.9807 42.8652L18.2496 41.5366C18.4957 43.3766 18.9034 45.189 19.4677 46.9515C14.4134 47.5779 10.8045 52.3452 11.407 57.5995C12.0096 62.8537 16.5956 66.6053 21.6499 65.9789C24.6925 65.6017 27.3559 63.6773 28.7565 60.8441ZM26.3709 58.5941C25.2238 61.9085 21.7094 63.6287 18.5211 62.4365C15.3327 61.2441 13.6779 57.5907 14.8248 54.2762C15.7023 51.7406 18.0182 50.0518 20.6103 50.0574C20.6303 50.0574 20.6488 50.0574 20.6687 50.0574C22.0814 53.2237 24.0105 56.1118 26.3709 58.5941ZM89.0651 34.6701L84.6104 34.0091C82.0909 33.635 79.7568 35.4552 79.3969 38.0742C79.2241 39.3319 79.539 40.6096 80.2725 41.626L82.9714 45.3674L78.0559 49.1998L75.3555 45.46C73.8286 43.3432 70.9401 42.9139 68.904 44.5011C67.9263 45.2632 67.2798 46.398 67.1066 47.6557L66.4845 52.2929L60.4031 51.3891L61.039 46.7583C61.3998 44.1392 59.6498 41.712 57.1304 41.3372C55.9198 41.1569 54.6902 41.4843 53.7119 42.2472L50.1128 45.0528L46.4262 39.9429L50.0237 37.1357C52.06 35.5484 52.473 32.5457 50.9461 30.4291C50.213 29.4127 49.1214 28.7407 47.9116 28.5606L43.4569 27.8995L44.3263 21.5776L48.781 22.2387C51.3004 22.6138 53.6353 20.7946 53.9959 18.1755C54.1692 16.917 53.8543 15.6387 53.1205 14.6218L50.4123 10.8771L55.3278 7.04472L58.0283 10.7861C59.5552 12.9029 62.4436 13.3323 64.4797 11.745C65.4574 10.9829 66.1039 9.84818 66.2771 8.59047L66.9131 3.95961L72.9945 4.86183L72.3585 9.49268C71.9987 12.1119 73.7495 14.5383 76.269 14.9124C77.4789 15.092 78.708 14.7647 79.6857 14.0022L83.2848 11.1965L86.9714 16.3064L83.3723 19.1137C81.3361 20.7009 80.923 23.7036 82.4499 25.8202C83.183 26.8366 84.2746 27.5087 85.4845 27.6887L89.9391 28.3498L89.0651 34.6701Z" fill="#F09F0C"/>
<path d="M66.6934 15.3481C59.9066 15.3481 54.4047 21.0677 54.4047 28.1229C54.4047 35.1782 59.9066 40.8977 66.6934 40.8977C73.4803 40.8977 78.9822 35.1782 78.9822 28.1229C78.9745 21.0708 73.4772 15.3559 66.6934 15.3481ZM66.6934 37.704C61.6032 37.704 57.4769 33.4145 57.4769 28.1229C57.4769 22.8314 61.6032 18.5418 66.6934 18.5418C71.7837 18.5418 75.91 22.8314 75.91 28.1229C75.9041 33.4119 71.7812 37.6978 66.6934 37.704Z" fill="#F09F0C"/>
<path d="M48.6658 70.8164H45.5936V75.6069H48.6658V70.8164Z" fill="#F09F0C"/>
<path d="M40.4108 55.1336C30.9283 51.2828 26.2442 40.1699 29.9486 30.3124C31.3841 26.4928 33.9604 23.2526 37.2987 21.0681L35.6566 18.3662C25.6074 24.9474 22.593 38.7511 28.9239 49.1977C31.3757 53.2435 35.0109 56.3655 39.2956 58.1053C43.0882 59.6159 45.5926 63.4004 45.5936 67.6225H48.6658C48.6706 62.083 45.3868 57.1151 40.4108 55.1336Z" fill="#F09F0C"/>
<path d="M87.0682 59.6382H76.3155V62.8319H87.0682V59.6382Z" fill="#F09F0C"/>
<path d="M75.763 67.9916L73.7964 70.4453L83.0137 78.4282L84.9802 75.9745L75.763 67.9916Z" fill="#F09F0C"/>
<path d="M70.1711 72.4131H67.0989V83.591H70.1711V72.4131Z" fill="#F09F0C"/>
<path d="M14.4978 24.5549L2.20984 27.748L2.95447 30.8447L15.2424 27.6516L14.4978 24.5549Z" fill="#F09F0C"/>
<path d="M6.5462 8.83863L4.76154 11.436L15.5134 19.4194L17.298 16.822L6.5462 8.83863Z" fill="#F09F0C"/>
<path d="M20.8993 0.157165L17.9229 0.948242L21.0647 13.722L24.041 12.9309L20.8993 0.157165Z" fill="#F09F0C"/>
</g>
<g clip-path="url(#clip1_0_72)">
<path d="M781.675 54.7055C779.208 54.7055 777.203 52.7821 777.049 50.2175C782.908 47.6529 786.455 41.562 786.3 34.9902C786.3 34.6696 786.3 34.0285 786.3 33.8682C786.3 25.8539 780.133 19.4424 772.423 19.4424H753.921C752.996 19.4424 752.379 20.0835 752.379 21.0453C752.379 24.7319 753.767 28.2582 756.079 30.8228C755.771 32.4256 755.463 33.8682 755.463 35.4711C755.463 41.8826 759.163 47.6529 764.714 50.2175C764.56 52.7821 762.555 54.7055 760.088 54.7055C755.771 54.7055 752.379 58.2318 752.379 62.7199V94.7773C752.379 95.739 752.996 96.3801 753.921 96.3801H787.842C788.767 96.3801 789.384 95.739 789.384 94.7773V62.7199C789.384 58.2318 785.992 54.7055 781.675 54.7055ZM755.617 22.6481H772.423C777.82 22.6481 782.291 26.8156 783.062 32.2653H766.256C760.859 32.2653 756.388 28.0979 755.617 22.6481ZM758.546 35.4711C758.546 34.6696 758.546 33.8682 758.701 33.2271C761.013 34.6696 763.635 35.4711 766.256 35.4711H783.217C783.217 40.9208 779.979 45.7294 775.045 47.4926C774.428 47.6529 773.965 48.294 773.965 48.9352V49.8969C773.965 51.9806 774.736 54.0644 776.278 55.6672L772.269 56.3084H769.494L765.485 55.6672C767.027 54.2247 767.798 52.1409 767.798 49.8969V49.0955C767.798 48.4543 767.335 47.8132 766.718 47.6529C761.784 45.7294 758.546 40.9208 758.546 35.4711ZM773.965 78.2677L770.881 81.3131L767.952 78.2677L770.727 59.5141H771.19L773.965 78.2677ZM755.463 62.7199C755.463 60.1553 757.467 57.9113 759.934 57.9113L767.489 59.1935L764.56 78.428C764.56 78.9088 764.714 79.3897 765.022 79.8706L769.648 84.6792C770.265 85.3203 771.19 85.3203 771.807 84.6792L776.432 79.8706C776.741 79.55 776.895 79.0691 776.895 78.428L773.965 59.1935L781.521 57.9113C783.988 57.9113 785.992 60.1553 785.992 62.7199V86.7629H755.463V62.7199ZM786.3 93.1744H755.463V89.9686H786.3V93.1744Z" fill="#F09F0C"/>
<path d="M838.725 13.0306H831.786L830.09 10.3057C829.319 9.02345 827.777 8.22202 826.235 8.22202H822.843C822.072 8.22202 821.455 7.74116 821.301 6.93972C819.759 1.81054 814.671 -0.91434 809.737 0.528243C806.808 1.48997 804.495 3.89427 803.57 6.93972C803.415 7.58087 802.799 8.22202 802.028 8.22202H798.636C797.094 8.22202 795.706 9.02345 794.781 10.3057L793.239 13.0306H786.3C782.908 13.0306 780.133 15.9158 780.133 19.4421H783.217C783.217 17.6789 784.604 16.2364 786.3 16.2364H791.234C790.309 17.6789 790.926 19.7627 792.314 20.5641C792.776 20.8847 793.393 21.045 793.856 21.045H831.324C833.02 21.045 834.407 19.6024 834.407 17.8392C834.407 17.1981 834.253 16.7172 833.945 16.2364H838.725C840.421 16.2364 841.808 17.6789 841.808 19.4421V89.9684C841.808 91.7315 840.421 93.1741 838.725 93.1741H792.468V96.3799H838.725C842.117 96.3799 844.892 93.4947 844.892 89.9684V19.4421C844.892 15.9158 842.117 13.0306 838.725 13.0306ZM793.856 17.8392L797.402 12.0689C797.71 11.7483 798.173 11.4278 798.79 11.4278H802.182C804.186 11.4278 806.037 9.98517 806.653 7.90144C807.733 4.53542 811.125 2.61197 814.363 3.73398C816.367 4.37513 817.755 5.978 818.372 7.90144C818.988 9.98517 820.839 11.4278 822.843 11.4278H826.235C826.698 11.4278 827.16 11.7483 827.469 12.0689L831.169 17.8392H793.856Z" fill="#F09F0C"/>
<path d="M814.054 6.61914H810.971V9.82488H814.054V6.61914Z" fill="#F09F0C"/>
<path d="M805.882 39.7987L803.724 37.5547L800.177 41.2413L796.631 37.5547L794.472 39.7987L798.019 43.4853L794.472 47.1719L796.631 49.4159L800.177 45.7293L803.724 49.4159L805.882 47.1719L802.336 43.4853L805.882 39.7987Z" fill="#F09F0C"/>
<path d="M822.843 71.8558L820.685 69.6118L817.138 73.2984L813.592 69.6118L811.433 71.8558L814.98 75.5424L811.433 79.229L813.592 81.473L817.138 77.7864L820.685 81.473L822.843 79.229L819.297 75.5424L822.843 71.8558Z" fill="#F09F0C"/>
<path d="M824.385 45.5688C823.768 44.9276 822.843 44.9276 822.226 45.5688L816.059 51.9802L818.218 54.2242L821.764 50.5376V53.9037C821.764 57.9108 818.68 61.1166 814.825 61.1166C809.275 61.1166 804.803 65.7649 804.803 71.5352V73.1381C804.803 77.1453 801.719 80.351 797.865 80.351H794.01V83.5568H797.865C803.415 83.5568 807.887 78.9084 807.887 73.1381V71.5352C807.887 67.5281 810.971 64.3223 814.825 64.3223C820.376 64.3223 824.848 59.674 824.848 53.9037V50.5376L828.394 54.2242L830.553 51.9802L824.385 45.5688Z" fill="#F09F0C"/>
<path d="M833.636 27.1361L831.478 24.7318L829.473 26.8155C825.773 23.2892 819.914 23.6097 816.521 27.6169C813.129 31.6241 813.438 37.5547 817.292 41.081C821.147 44.6073 826.852 44.2868 830.244 40.2796C832.865 37.2341 833.328 32.9064 831.478 29.3801L833.636 27.1361ZM823.306 40.2796C819.914 40.2796 817.138 37.3944 817.138 33.8681C817.138 30.3418 819.914 27.4566 823.306 27.4566C824.848 27.4566 826.235 28.0978 827.315 29.0595L823.306 33.227L821.301 31.1432L819.143 33.3873L822.226 36.593C822.843 37.2341 823.768 37.2341 824.385 36.593L829.011 31.7844C829.319 32.4255 829.473 33.0667 829.473 33.8681C829.473 37.3944 826.698 40.2796 823.306 40.2796Z" fill="#F09F0C"/>
<path d="M781.675 65.9253H777.049V69.131H781.675V65.9253Z" fill="#F09F0C"/>
<path d="M835.641 21.0449V86.7626H792.468V89.9683H837.183C838.108 89.9683 838.725 89.3272 838.725 88.3654V21.0449H835.641Z" fill="#F09F0C"/>
</g>
<path d="M472.38 66.1004C472.379 66.1004 472.379 66.1003 472.378 66.1003V66.0955L466.404 65.2092C465.564 65.0858 464.979 64.2778 465.098 63.4047C465.155 62.9837 465.372 62.6038 465.699 62.3491L467.658 60.8257H471.756C472.604 60.8257 473.292 60.1107 473.292 59.2288V1.74045C473.292 0.858566 472.604 0.143555 471.756 0.143555H382.66C381.811 0.143555 381.123 0.858566 381.123 1.74045V59.2288C381.123 60.1107 381.811 60.8257 382.66 60.8257H386.632L384.646 62.8905C384.122 63.4352 384.048 64.2908 384.468 64.9249L387.386 69.3388L382.337 70.4406C381.628 70.5989 381.123 71.2505 381.123 72.004V78.3916C381.123 79.1469 381.632 79.7992 382.343 79.9549L387.392 81.0584L384.474 85.4706C384.054 86.1048 384.129 86.9603 384.652 87.5051L389.26 92.2958C389.784 92.8399 390.607 92.9178 391.217 92.481L395.462 89.4469L396.523 94.6959C396.675 95.4303 397.299 95.9555 398.021 95.9575H404.166C404.892 95.9579 405.52 95.4287 405.67 94.6895L406.731 89.4389L410.975 92.481C411.585 92.9178 412.408 92.8399 412.932 92.2958L417.541 87.5051C418.064 86.9603 418.139 86.1048 417.719 85.4706L414.8 81.0568L419.85 79.9549C420.558 79.7966 421.064 79.1451 421.063 78.3916V72.004C421.064 71.2486 420.555 70.5963 419.844 70.4406L414.794 69.3372L417.713 64.9249C418.133 64.2908 418.058 63.4352 417.535 62.8905L415.555 60.8257H421.894L420.665 69.7124C420.544 70.5851 421.125 71.3954 421.965 71.5221C421.972 71.5231 421.978 71.5241 421.985 71.5249L427.959 72.4112C428.799 72.5345 429.384 73.3426 429.265 74.2157C429.208 74.6367 428.991 75.0165 428.664 75.2712L423.828 79.0303C423.15 79.5595 423.012 80.5604 423.521 81.266L429.051 88.9311C429.56 89.6367 430.523 89.7797 431.202 89.2505L436.03 85.485C436.709 84.9556 437.672 85.0985 438.181 85.804C438.425 86.1431 438.53 86.5695 438.472 86.9893L437.618 93.1996C437.498 94.0727 438.081 94.8817 438.921 95.0071C438.921 95.0071 438.922 95.0073 438.923 95.0073L448.046 96.3615C448.118 96.3728 448.191 96.3788 448.264 96.379C449.028 96.379 449.677 95.7944 449.785 95.0073L450.639 88.797C450.758 87.9239 451.536 87.3168 452.376 87.4412C452.78 87.5009 453.144 87.7251 453.388 88.064L457.009 93.083C457.518 93.7887 458.481 93.9316 459.16 93.4024L466.533 87.6536C467.212 87.1244 467.349 86.1236 466.84 85.4179L463.218 80.3989C462.709 79.6935 462.846 78.6924 463.525 78.1632C463.851 77.9087 464.262 77.7995 464.665 77.8598L470.639 78.7461C471.479 78.8714 472.258 78.2652 472.378 77.3923C472.378 77.3921 472.378 77.3921 472.378 77.3919L473.682 67.9079C473.803 67.035 473.22 66.2258 472.38 66.1004ZM417.991 73.3007V77.0949L414.161 77.9317C412.501 78.2944 411.438 79.9877 411.786 81.7139C411.87 82.1287 412.033 82.522 412.264 82.8709L414.458 86.1876L411.665 89.0908L408.475 86.804C407.077 85.8032 405.164 86.1693 404.201 87.6217C403.971 87.97 403.809 88.3624 403.725 88.7762L402.918 92.7637H399.268L398.462 88.7842C398.111 87.0585 396.48 85.9555 394.82 86.3206C394.426 86.4072 394.052 86.5737 393.72 86.8104L390.522 89.0908L387.729 86.1876L389.929 82.8709C390.892 81.4189 390.541 79.43 389.144 78.4283C388.809 78.1876 388.431 78.0187 388.032 77.9317L384.196 77.0949V73.3007L388.025 72.4639C389.685 72.0986 390.746 70.4035 390.395 68.6778C390.311 68.2676 390.151 67.8784 389.923 67.5327L387.729 64.2079L390.522 61.3048L393.72 63.5851C395.117 64.586 397.03 64.2199 397.993 62.7675C398.224 62.4192 398.386 62.0268 398.47 61.613L399.268 57.6319H402.918L403.725 61.6114C404.074 63.3376 405.702 64.4433 407.363 64.0808C407.761 63.9937 408.139 63.8253 408.475 63.5851L411.665 61.3048L414.458 64.2079L412.264 67.5327C411.301 68.9846 411.652 70.9736 413.048 71.9752C413.384 72.216 413.762 72.3848 414.161 72.4719L417.991 73.3007ZM407.648 60.2971L406.726 60.955L405.665 55.706C405.516 54.9685 404.891 54.4401 404.166 54.4381H401.093V43.2598H407.238V59.2288C407.24 59.6258 407.387 60.0073 407.648 60.2971ZM414.919 33.6784C414.07 33.6784 413.383 34.3934 413.383 35.2753V57.6319H410.31V41.6629C410.31 40.781 409.622 40.066 408.774 40.066H399.557C398.709 40.066 398.021 40.781 398.021 41.6629V54.4381C397.294 54.4377 396.667 54.9669 396.517 55.706L395.456 60.9566L391.211 57.9145C390.954 57.7351 390.65 57.6427 390.34 57.6495V57.6319H384.196V3.33735H470.22V55.5032L465.304 48.6893C464.795 47.9836 463.832 47.8407 463.154 48.3699L458.326 52.1354C457.647 52.6647 456.684 52.5218 456.175 51.8164C455.93 51.4773 455.825 51.0509 455.883 50.6311L456.737 44.4208C456.796 43.9784 456.671 43.5311 456.395 43.1895V14.5156C456.395 13.6338 455.707 12.9187 454.859 12.9187H445.642C444.793 12.9187 444.105 13.6338 444.105 14.5156V45.9969L443.717 48.8234C443.604 49.6903 442.837 50.2983 442.003 50.1812C441.623 50.1279 441.277 49.9283 441.033 49.6219V22.5001C441.033 21.6182 440.345 20.9032 439.497 20.9032H430.28C429.432 20.9032 428.744 21.6182 428.744 22.5001V49.2482L427.822 49.9668C427.144 50.496 427.006 51.4968 427.515 52.2024L431.137 57.2215C431.647 57.9269 431.509 58.928 430.83 59.4571C430.504 59.7117 430.094 59.8208 429.69 59.7606L425.672 59.1649V35.2753C425.672 34.3934 424.984 33.6784 424.136 33.6784H414.919ZM453.322 16.1125V42.3017L447.178 41.3882V16.1125H453.322ZM437.961 24.097V45.3901L437.346 44.5373C436.837 43.8317 435.875 43.6888 435.196 44.2179L431.816 46.8528V24.097H437.961ZM422.599 57.6319H416.455V36.8722H422.599V57.6319ZM469.553 75.3575L465.098 74.6964C462.579 74.3223 460.245 76.1423 459.885 78.7617C459.712 80.0194 460.027 81.2971 460.76 82.3136L463.461 86.0567L458.545 89.8893L455.846 86.1477C454.32 84.03 451.432 83.5995 449.395 85.1856C448.416 85.9481 447.768 87.0843 447.596 88.3434L446.96 92.9745L440.88 92.0706L441.516 87.4396C441.875 84.8203 440.123 82.3942 437.603 82.0209C436.395 81.8419 435.167 82.1688 434.19 82.93L430.587 85.7373L426.901 80.6272L430.498 77.8215C432.535 76.2342 432.948 73.2314 431.421 71.1147C430.688 70.0983 429.596 69.4262 428.386 69.2461L423.931 68.5834L424.801 62.2613L429.256 62.9224C431.775 63.2965 434.109 61.4764 434.469 58.8571C434.642 57.5994 434.327 56.3216 433.594 55.3052L430.895 51.5637L435.81 47.7311L438.509 51.4727C440.035 53.5903 442.924 54.0209 444.961 52.4348C445.94 51.6723 446.587 50.5361 446.76 49.2769L447.396 44.6459L453.478 45.5498L452.842 50.1808C452.482 52.8001 454.234 55.2262 456.754 55.5994C457.962 55.7785 459.19 55.4515 460.167 54.6904L463.768 51.8831L467.455 56.9931L463.857 59.7989C461.821 61.3862 461.408 64.389 462.935 66.5057C463.668 67.5221 464.76 68.1942 465.969 68.3742L470.424 69.0369L469.553 75.3575Z" fill="#F09F0C"/>
<path d="M401.093 65.6157C396.003 65.6157 391.877 69.9054 391.877 75.1971C391.877 80.4888 396.003 84.7785 401.093 84.7785C406.184 84.7785 410.31 80.4888 410.31 75.1971C410.305 69.9076 406.182 65.6209 401.093 65.6157ZM401.093 81.5847C397.7 81.5847 394.949 78.7249 394.949 75.1971C394.949 71.6694 397.7 68.8095 401.093 68.8095C404.487 68.8095 407.238 71.6694 407.238 75.1971C407.238 78.7249 404.487 81.5847 401.093 81.5847Z" fill="#F09F0C"/>
<path d="M447.178 56.0352C440.391 56.0352 434.889 61.7548 434.889 68.8103C434.889 75.8658 440.391 81.5855 447.178 81.5855C453.965 81.5855 459.467 75.8658 459.467 68.8103C459.459 61.758 453.962 56.0431 447.178 56.0352ZM447.178 78.3917C442.087 78.3917 437.961 74.1021 437.961 68.8103C437.961 63.5186 442.087 59.229 447.178 59.229C452.268 59.229 456.395 63.5186 456.395 68.8103C456.39 74.0999 452.266 78.3865 447.178 78.3917Z" fill="#F09F0C"/>
<path d="M442.877 6.56321L435.196 4.96631L434.581 8.09623L438.305 8.87232L397.244 33.8973L398.798 36.6536L440.391 11.3076L439.528 15.7933L442.539 16.4193L444.075 8.43477C444.237 7.57484 443.702 6.73966 442.877 6.56321Z" fill="#F09F0C"/>
<path d="M390.34 43.2593H387.268V54.4376H390.34V43.2593Z" fill="#F09F0C"/>
<path d="M390.34 36.8726H387.268V40.0664H390.34V36.8726Z" fill="#F09F0C"/>
<path d="M467.148 20.9023H464.075V44.8558H467.148V20.9023Z" fill="#F09F0C"/>
<path d="M467.148 14.5156H464.075V17.7094H467.148V14.5156Z" fill="#F09F0C"/>
<path d="M419.527 91.1665H416.455V94.3603H419.527V91.1665Z" fill="#F09F0C"/>
<path d="M425.672 91.1665H422.599V94.3603H425.672V91.1665Z" fill="#F09F0C"/>
<path d="M431.816 91.1665H428.744V94.3603H431.816V91.1665Z" fill="#F09F0C"/>
<defs>
<clipPath id="clip0_0_72">
<rect width="92.5747" height="96.2359" fill="white" transform="translate(0.641296 0.144043)"/>
</clipPath>
<clipPath id="clip1_0_72">
<rect width="92.5747" height="96.2359" fill="white" transform="translate(752.348 0.144043)"/>
</clipPath>
</defs>
</svg>
